^C:\USERS\TIENMM\DESKTOP\TESTCLIENT\CLIENTTEST\CLIENTTEST\DEBUG\CLIENTTEST.EXE.INTERMEDIATE.MANIFEST
C:\WINDOWS\MICROSOFT.NET\FRAMEWORK\V2.0.50727\MSCORWKS.DLL
C:\WINDOWS\MICROSOFT.NET\FRAMEWORK\V4.0.30319\CLR.DLL
C:\PROGRAM FILES (X86)\MICROSOFT SDKS\WINDOWS\V7.0A\BIN\MT.EXE.CONFIG
C:\USERS\TIENMM\DESKTOP\TESTCLIENT\CLIENTTEST\DEBUG\CLIENTTEST.EXE
^C:\USERS\TIENMM\DESKTOP\LAN1\XBOX\SRC\TESTCLIENT\CLIENTTEST\CLIENTTEST\DEBUG\CLIENTTEST.EXE.INTERMEDIATE.MANIFEST
C:\WINDOWS\MICROSOFT.NET\FRAMEWORK\V2.0.50727\MSCORWKS.DLL
C:\WINDOWS\MICROSOFT.NET\FRAMEWORK\V4.0.30319\CLR.DLL
C:\PROGRAM FILES (X86)\MICROSOFT SDKS\WINDOWS\V7.0A\BIN\MT.EXE.CONFIG
C:\USERS\TIENMM\DESKTOP\LAN1\XBOX\SRC\TESTCLIENT\CLIENTTEST\DEBUG\CLIENTTEST.EXE
^F:\XBOX\SRC\TESTCLIENT\CLIENTTEST\CLIENTTEST\DEBUG\CLIENTTEST.EXE.INTERMEDIATE.MANIFEST
C:\WINDOWS\REGISTRATION\R00000000000D.CLB
C:\WINDOWS\MICROSOFT.NET\FRAMEWORK\V2.0.50727\MSCORWKS.DLL
C:\WINDOWS\MICROSOFT.NET\FRAMEWORK\V4.0.30319\CLR.DLL
C:\PROGRAM FILES (X86)\MICROSOFT SDKS\WINDOWS\V7.0A\BIN\MT.EXE.CONFIG
F:\XBOX\SRC\TESTCLIENT\CLIENTTEST\DEBUG\CLIENTTEST.EXE
